verilog work "pacoblaze-2.2/pacoblaze/pacoblaze3m.v"
verilog work "pacoblaze-2.2/pacoblaze/blockram.v"
verilog work "pacoblaze-2.2/pacoblaze/pacoblaze3m_tb.v"
verilog work "/opt/Xilinx/12.4/ISE_DS/ISE//verilog/src/glbl.v"
